[gd_scene load_steps=4 format=2]

[ext_resource path="res://Potion/Potion.gd" type="Script" id=1]
[ext_resource path="res://Assets/tileset.png" type="Texture" id=2]

[sub_resource type="CapsuleShape2D" id=1]
radius = 16.4714
height = 10.2791

[node name="Potion" type="Area2D"]
script = ExtResource( 1 )

[node name="Sprite" type="Sprite" parent="."]
texture = ExtResource( 2 )
region_enabled = true
region_rect = Rect2( 96, 0, 32, 32 )

[node name="CollisionShape2D" type="CollisionShape2D" parent="."]
shape = SubResource( 1 )

